#include <stdio.h>


int main(int argc, char const *argv[])
{
    int n1, n2, n3;

    printf( "\n   Introduzca el primer numero (entero): ");
    scanf( "%d", &n1 );
    printf( "\n   Introduzca el segundo numero (entero): " );
    scanf( "%d", &n2 );
    printf( "\n   Introduzca el tercer numero (entero): " );
    scanf( "%d", &n3 );

    if ( n1 >= n2 && n1 >= n3 )
        printf( "\n   %d es el mayor.", n1 );
    else

        if ( n2 > n3 )
            printf( "\n   %d es el mayor.", n2 );
        else
            printf( "\n   %d es el mayor.", n3 );

    

    return 0;
}

